{
    "name": "CARE to Compare",
    "title": "CARE to Compare Data",
    "id": "10.5281/zenodo.14006163",
    "description": "The data consists of 95 datasets, containing 89 years of SCADA time series distributed across 36 different wind turbines from the three wind farms A, B and C. The number of features depends on the wind farm; Wind farm A has 86 features, wind farm B has 257 features and wind farm C has 957 features.",
    "language": [
        "en-GB"
    ],
    "subject": {
        "name": "wind energy",
        "path": "https://openenergy-platform.org/ontology/oeo/OEO_00000446"
    },
    "keywords": [],
    "publicationDate": "2024-10-29",
    "context": {
        "homepage": "https://yenodo.org/",
        "documentation": "https://arxiv.org/abs/2404.10320",
        "contact": "https://twitter.com/zenodo_org",
        "publisherLogo": "https://zenodo.org/static/images/invenio-rdm.svg"
    },
    "temporal": {
        "timeseries": [
            {
                "resolution": "10 m"
            }
        ]
    },
    "licenses": [
        {
            "name": "CC BY-SA 4.0",
            "title": "Cubico Sustainable Investments",
            "path": "https://creativecommons.org/licenses/by-sa/4.0/",
            "instruction": "Permits almost any use subject to providing credit and license notice.",
            "attribution": "Fraunhofer Institute for Energy Economics and Energy System Technology"
        }
    ],
    "contributors": [
        {"title": "Christain Gück", "object": "data and metadata"},
        {"title": "Cyriana Roelofs", "object": "data and metadata"}
    ],
    "resources": []
}
